INDEX VERSION 1.130+C:\workspace\cocus\question_5\.metadata\.plugins\org.eclipse.jdt.core
4193803526.index
720667596.index
3935241189.index
1554051480.index
526019975.index
327399121.index
1583754087.index
3808843675.index
1545932363.index
776769097.index
653055787.index
1250186508.index
197087373.index
10331766.index
3934384119.index
480691596.index
2507285365.index
931877013.index
593251401.index
3729650519.index
334484962.index
1628147130.index
4266078118.index
3527903221.index
2524795793.index
4018783759.index
1428178871.index
